Portfolio in R
…
Using dplyr to filter the data.

select

starwars3 <- starwars %>% 
  select( name, species, j = 9)

starwars3

# A tibble: 87 x 3
   name               species j       
   <chr>              <chr>   <chr>   
 1 Luke Skywalker     Human   Tatooine
 2 C-3PO              Droid   Tatooine
 3 R2-D2              Droid   Naboo   
 4 Darth Vader        Human   Tatooine
 5 Leia Organa        Human   Alderaan
 6 Owen Lars          Human   Tatooine
 7 Beru Whitesun lars Human   Tatooine
 8 R5-D4              Droid   Tatooine
 9 Biggs Darklighter  Human   Tatooine
10 Obi-Wan Kenobi     Human   Stewjon 
# ... with 77 more rows
…
starwars %>%
 mutate(name, imc = mass / ((height / 100) ^ 2)) %>%
 select(name:mass, imc)

# A tibble: 87 x 4
   name               height  mass   imc
   <chr>               <int> <dbl> <dbl>
 1 Luke Skywalker        172    77  26.0
 2 C-3PO                 167    75  26.9
 3 R2-D2                  96    32  34.7
 4 Darth Vader           202   136  33.3
 5 Leia Organa           150    49  21.8
 6 Owen Lars             178   120  37.9
 7 Beru Whitesun lars    165    75  27.5
 8 R5-D4                  97    32  34.0
 9 Biggs Darklighter     183    84  25.1
10 Obi-Wan Kenobi        182    77  23.2
# ... with 77 more rows

rename(starwars, nome = name, altura=height, massa = mass)

# A tibble: 87 x 13
   nome  altura massa hair_color skin_color eye_color birth_year gender
   <chr>  <int> <dbl> <chr>      <chr>      <chr>          <dbl> <chr> 
 1 Luke~    172    77 blond      fair       blue            19   male  
 2 C-3PO    167    75 <NA>       gold       yellow         112   <NA>  
 3 R2-D2     96    32 <NA>       white, bl~ red             33   <NA>  
 4 Dart~    202   136 none       white      yellow          41.9 male  
 5 Leia~    150    49 brown      light      brown           19   female
 6 Owen~    178   120 brown, gr~ light      blue            52   male  
 7 Beru~    165    75 brown      light      blue            47   female
 8 R5-D4     97    32 <NA>       white, red red             NA   <NA>  
 9 Bigg~    183    84 black      light      brown           24   male  
10 Obi-~    182    77 auburn, w~ fair       blue-gray       57   male  
# ... with 77 more rows, and 5 more variables: homeworld <chr>,
#   species <chr>, films <list>, vehicles <list>, starships <list>
…
aggregations

group_by, summarise, n

starwars %>% group_by(species) %>% summarise(j = n())

# A tibble: 38 x 2
   species       j
   <chr>     <int>
 1 Aleena        1
 2 Besalisk      1
 3 Cerean        1
 4 Chagrian      1
 5 Clawdite      1
 6 Droid         5
 7 Dug           1
 8 Ewok          1
 9 Geonosian     1
10 Gungan        3
# ... with 28 more rows
…
